%YAML 1.1
%TAG !u! tag:unity3d.com,2011:
--- !u!1045 &1
EditorBuildSettings:
  m_ObjectHideFlags: 0
  serializedVersion: 2
  m_Scenes:
  - enabled: 1
    path: Assets/Scenes/MainMenu.unity
    guid: d52f84a33b282c6468662a3acb1c4a06
  - enabled: 1
    path: Assets/Scenes/level1.unity
    guid: c01cea01cbc3b4b4295a253e1d7410d7
  - enabled: 1
    path: Assets/Scenes/level2.unity
    guid: a51258c76c9f2c84cb2b50035540a649
  - enabled: 1
    path: Assets/Scenes/level3.unity
    guid: ccdc38fbbc4f96143b3a814f292211c2
  - enabled: 1
    path: Assets/Scenes/Tuto.unity
    guid: 6830a5f775d6f034cb72bf2af101d10d
  - enabled: 1
    path: Assets/Scenes/Credits.unity
    guid: 96f2ec2755c912c43bb4bb023eb86da6
  m_configObjects: {}
